OrderH {
        "orderNo":
	"orderCuscode":
	"orderAmount":
	"orderQty":
	"orderStates": 1
	"odrerStatus": "Draft",
	"orderAddress":
	"orderShipAmount"

        "orderD":[
        	{
        		 "id": {
        		 	"orderNo":null,
        		 	"orderCmpCode": 2,
                                "orderProdCode": 1112
         		       },
         		 "orderRate":
         		 "orderQty":
			 "orderGrossAmt":
			 "ordertaxAmt":
			 "orderDisc":
			 "orderNetAmt":			

        		 
        	},
        	{                	
        		 "id": {
        		 	"orderNo":null,
        		 	"orderCmpCode": 2,
                                "orderProdCode": 1112
         		       },
         		 "orderRate":
         		 "orderQty":
			 "orderGrossAmt":
			 "ordertaxAmt":
			 "orderDisc":
			 "orderNetAmt":				
        	}]
}
				]